4 Merce L – It was awful, and such small portions
…
realgames |>
 # filter(meta_score<=70) 
  arrange(desc(main_story))

# A tibble: 35,922 × 8
   name     main_story main_plus_extras completionist all_styles type  platforms
   <chr>         <dbl>            <dbl>         <dbl>      <dbl> <chr> <chr>    
 1 Anti-Id…        420               NA            NA        420 <NA>  Browser  
 2 Destiny…        248              264           446        296 <NA>  PlayStat…
 3 Final F…        230               NA            NA        230 <NA>  Mobile   
 4 Futuram…        200               NA            NA        200 <NA>  iOS      
 5 X-Pirat…        200               NA            NA        200 <NA>  PC       
 6 Fate/Gr…        192               NA            NA        192 <NA>  Android  
 7 osu!            186              233           233        171 <NA>  PC       
 8 Idling …        183               NA            NA        183 <NA>  PC       
 9 Patrici…        142               NA            NA        142 <NA>  PC       
10 Monster…        141              171           455        235 <NA>  PlayStat…
# ℹ 35,912 more rows
# ℹ 1 more variable: genres <chr>
…
